{
    "MPN": [
        false,
        "AMS1117-3.3"
    ],
    "base": "4608bd7c-0916-40fc-8b94-f08f923aa1f9",
    "datasheet": [
        true,
        "http://www.advanced-monolithic.com/pdf/ds1117.pdf"
    ],
    "description": [
        false,
        "1.0 A Low-Dropout 3.3V Regulator"
    ],
    "inherit_model": true,
    "inherit_tags": true,
    "manufacturer": [
        true,
        "Advanced Monolithic Systems"
    ],
    "model": "1c4377f2-2789-4b2c-b94b-c08645583d2e",
    "orderable_MPNs": {
        "0a75f71e-b608-46e6-943a-52bc6fb01e1a": "AMS1117-3.3"
    },
    "parametric": {},
    "tags": [],
    "type": "part",
    "uuid": "a1baa25f-b9d2-4036-b367-daf83d883893",
    "value": [
        true,
        "AMS1117"
    ]
}